<?xml version="1.0" encoding="UTF-8"?>
<svg width="25px" height="27px" viewBox="0 0 25 27" version="1.1" xmlns="http://www.w3.org/2000/svg" xmlns:xlink="http://www.w3.org/1999/xlink">
    <!-- Generator: Sketch 52.6 (67491) - http://www.bohemiancoding.com/sketch -->
    <title>waving</title>
    <desc>Created with Sketch.</desc>
    <g id="old-Settings" stroke="none" stroke-width="1" fill="none" fill-rule="evenodd">
        <g id="rating-3" transform="translate(-278.000000, -440.000000)">
            <g id="Rating-widget" transform="translate(263.000000, 413.000000)">
                <g id="waving" transform="translate(27.500000, 40.500000) scale(-1, 1) rotate(-180.000000) translate(-27.500000, -40.500000) translate(15.000000, 27.000000)">
                    <path d="M5.61333406,19.5895358 L4.99277485,20.4906272 C4.49390716,21.2021455 4.67256067,21.9719203 5.38537354,22.470788 C6.09751096,22.9690365 7.0799364,22.7967434 7.57942325,22.0839868 L12.9274368,14.5025971 L13.2784364,14.046155 L8.11482091,21.6312178 C7.61145029,22.3497719 7.70623684,23.260432 8.42479094,23.7644218 C9.14334503,24.2664978 10.13472,24.0929664 10.6380906,23.3731177 L17.3111988,13.9461901 C17.8145694,13.2270168 17.5679781,12.2420585 16.8494803,11.7386879 C16.7271696,11.6528509 16.5952339,11.5939751 16.4607654,11.547201 C16.3854335,10.824883 16.3289347,10.2831445 16.2912687,9.92198551 C16.2396433,9.42697606 16.1622052,8.68446188 16.0589544,7.69444298 C15.8649506,7.30936561 15.6985994,7.07788461 15.5599008,7 C15.4212022,6.92211539 15.1753271,6.92211539 14.8222753,7 L10.056538,7.69444298 C9.96237061,7.77707164 9.43727339,8.18306652 9.36297515,8.28939181 L3.17207383,17.4684898 C2.66425658,18.1915468 2.83970175,19.188663 3.56337792,19.6958611 C4.16598173,20.1166031 5.07281433,20.0359444 5.61333406,19.5895358 Z" id="shadow" fill="#F99F00"></path>
                    <path d="M2.17625219,14.4514744 L7.60829825,6.5289174 L7.63649781,6.54878655 C7.73764474,6.36754386 7.84397003,6.18635746 7.97078363,6.00061184 C10.371011,2.50071418 15.1549174,1.60924781 18.6548151,4.00891228 C21.8639364,6.20937865 22.8803026,10.4124079 21.1787039,13.7938224 C20.5761001,14.9907558 20.120742,16.2568092 19.6929642,17.5274218 L18.6138385,19.7320402 C18.6138385,19.7320402 18.2648056,20.9642091 17.0326367,20.6151762 C15.8004678,20.2661433 16.1495007,19.0333553 16.1495007,19.0333553 L17.0857149,15.3570124 C13.9163319,13.1840702 13.2522069,11.1227639 15.4257683,7.95332456 C15.4257683,7.95332456 14.8974627,7.59145833 14.5349773,8.11982018 C12.7245205,10.7602785 13.0261601,13.3499466 16.194924,15.5228889 L15.833114,16.0512507 L15.4302712,16.6384883 L10.4004488,23.9738077 C10.4004488,23.9738077 9.67615351,25.0305314 8.62010526,24.3055607 C7.56343787,23.5812654 8.28773319,22.5252171 8.28773319,22.5252171 L13.0441718,15.5881813 C12.8590453,15.483826 12.6739751,15.3839174 12.4869912,15.2692617 L7.39694225,22.6910373 C7.39694225,22.6910373 6.67264693,23.747761 5.61659868,23.0227902 C4.56055044,22.2984949 5.28484576,21.2424466 5.28484576,21.2424466 L10.3742193,13.8199956 C10.201307,13.6887354 10.0347551,13.5555051 9.87146784,13.4216557 L5.48077924,19.823913 C5.48077924,19.823913 4.75648392,20.8806367 3.70043567,20.1556659 C2.64376827,19.4313706 3.3680636,18.3753224 3.3680636,18.3753224 L8.03540058,11.5676893 C7.89451535,11.3800863 7.7670826,11.1892186 7.65180775,10.995818 L4.28896784,15.9001213 C4.28896784,15.9001213 3.56467251,16.9567887 2.50862427,16.2324934 C1.45128143,15.5081418 2.17625219,14.4514744 2.17625219,14.4514744 Z" id="hand" fill="#FFC937"></path>
                    <g id="lines" fill="#099CD0">
                        <path d="M7.68530921,2.58355263 C5.12365205,2.58355263 2.53508991,5.17211477 2.53508991,7.73377193 C2.53508991,8.0879269 2.27572149,8.37420029 1.92156652,8.37420029 C1.56741155,8.37420029 1.25423319,8.0879269 1.25423319,7.73377193 C1.25423319,3.89125804 3.84279532,1.30269591 7.68530921,1.30269591 C8.03946418,1.30269591 8.32573757,1.61587427 8.32573757,1.97002924 C8.32573757,2.32418421 8.03946418,2.58355263 7.68530921,2.58355263" id="Path"></path>
                        <path d="M4.48322368,1.32960088 C2.56199488,1.32960088 1.28113816,2.6104576 1.28113816,4.5316864 C1.28113816,4.88584137 0.994864766,5.17211477 0.640709795,5.17211477 C0.286554825,5.17211477 0.000281432749,4.88584137 0.000281432749,4.5316864 C0.000281432749,1.97002924 1.92151023,0.0488004386 4.4831674,0.0488004386 C4.83732237,0.0488004386 5.12359576,0.33507383 5.12359576,0.689228801 C5.12359576,1.04338377 4.83737865,1.32960088 4.48322368,1.32960088" id="Path"></path>
                        <path d="M17.2702807,25.7229145 C16.9167449,25.7229145 16.6298523,25.4360219 16.6298523,25.0824861 C16.6298523,24.7289503 16.9167449,24.4420577 17.2702807,24.4420577 C19.8319379,24.4420577 22.393595,22.1435965 22.393595,19.3187434 C22.393595,18.9652076 22.6804876,18.6783151 23.0340234,18.6783151 C23.3875592,18.6783151 23.6744518,18.9652076 23.6744518,19.3187434 C23.6744518,22.8499927 21.1127946,25.7229145 17.2702807,25.7229145" id="Path"></path>
                        <path d="M20.4723662,26.9774854 C20.1188304,26.9774854 19.8319379,26.7174978 19.8319379,26.363962 C19.8319379,26.009807 20.1188304,25.6966287 20.4723662,25.6966287 C22.393595,25.6966287 23.6475468,24.2716784 23.6475468,22.5214481 C23.6475468,22.1672931 23.9613443,21.8810197 24.3148801,21.8810197 C24.6684159,21.8810197 24.9284035,22.1672931 24.9284035,22.5214481 C24.9284035,24.9781308 23.0340234,26.9774854 20.4723662,26.9774854" id="Path"></path>
                    </g>
                </g>
            </g>
        </g>
    </g>
</svg>